%YAML 1.1
%TAG !u! tag:unity3d.com,2011:
--- !u!1 &681242875477206529
GameObject:
  m_ObjectHideFlags: 0
  m_CorrespondingSourceObject: {fileID: 0}
  m_PrefabInstance: {fileID: 0}
  m_PrefabAsset: {fileID: 0}
  serializedVersion: 6
  m_Component:
  - component: {fileID: 681242875476982309}
  - component: {fileID: 681242875476485157}
  - component: {fileID: 681242875483109381}
  - component: {fileID: 681242875471188963}
  - component: {fileID: 681242875470118509}
  m_Layer: 8
  m_Name: MainCamera
  m_TagString: MainCamera
  m_Icon: {fileID: 0}
  m_NavMeshLayer: 0
  m_StaticEditorFlags: 0
  m_IsActive: 1
--- !u!4 &681242875476982309
Transform:
  m_ObjectHideFlags: 0
  m_CorrespondingSourceObject: {fileID: 0}
  m_PrefabInstance: {fileID: 0}
  m_PrefabAsset: {fileID: 0}
  m_GameObject: {fileID: 681242875477206529}
  m_LocalRotation: {x: 0, y: 0, z: 0, w: 1}
  m_LocalPosition: {x: 0, y: 0.6, z: 0}
  m_LocalScale: {x: 1, y: 1, z: 1}
  m_Children:
  - {fileID: 713354634460229528}
  - {fileID: 37847408951371118}
  m_Father: {fileID: 681242875476982311}
  m_RootOrder: 0
  m_LocalEulerAnglesHint: {x: 0, y: 0, z: 0}
--- !u!20 &681242875476485157
Camera:
  m_ObjectHideFlags: 0
  m_CorrespondingSourceObject: {fileID: 0}
  m_PrefabInstance: {fileID: 0}
  m_PrefabAsset: {fileID: 0}
  m_GameObject: {fileID: 681242875477206529}
  m_Enabled: 1
  serializedVersion: 2
  m_ClearFlags: 1
  m_BackGroundColor: {r: 0.19215687, g: 0.3019608, b: 0.4745098, a: 0.019607844}
  m_projectionMatrixMode: 1
  m_GateFitMode: 2
  m_FOVAxisMode: 1
  m_SensorSize: {x: 36, y: 24}
  m_LensShift: {x: 0, y: 0}
  m_FocalLength: 50
  m_NormalizedViewPortRect:
    serializedVersion: 2
    x: 0
    y: 0
    width: 1
    height: 1
  near clip plane: 0.01
  far clip plane: 1000
  field of view: 70.5328
  orthographic: 0
  orthographic size: 5
  m_Depth: 0
  m_CullingMask:
    serializedVersion: 2
    m_Bits: 4294967295
  m_RenderingPath: -1
  m_TargetTexture: {fileID: 0}
  m_TargetDisplay: 0
  m_TargetEye: 3
  m_HDR: 0
  m_AllowMSAA: 1
  m_AllowDynamicResolution: 0
  m_ForceIntoRT: 0
  m_OcclusionCulling: 1
  m_StereoConvergence: 10
  m_StereoSeparation: 0.022
--- !u!81 &681242875483109381
AudioListener:
  m_ObjectHideFlags: 0
  m_CorrespondingSourceObject: {fileID: 0}
  m_PrefabInstance: {fileID: 0}
  m_PrefabAsset: {fileID: 0}
  m_GameObject: {fileID: 681242875477206529}
  m_Enabled: 1
--- !u!114 &681242875471188963
MonoBehaviour:
  m_ObjectHideFlags: 0
  m_CorrespondingSourceObject: {fileID: 0}
  m_PrefabInstance: {fileID: 0}
  m_PrefabAsset: {fileID: 0}
  m_GameObject: {fileID: 681242875477206529}
  m_Enabled: 0
  m_EditorHideFlags: 0
  m_Script: {fileID: 11500000, guid: 83c81407209f85e4c87c0cda8b32868e, type: 3}
  m_Name: 
  m_EditorClassIdentifier: 
  Camera: {fileID: 681242875476485157}
  motionBob:
    HorizontalBobRange: 0.1
    VerticalBobRange: 0.05
    Bobcurve:
      serializedVersion: 2
      m_Curve:
      - serializedVersion: 3
        time: 0
        value: 0
        inSlope: 0
        outSlope: 0
        tangentMode: 0
        weightedMode: 0
        inWeight: 0.33333334
        outWeight: 0.33333334
      - serializedVersion: 3
        time: 0.5
        value: 1
        inSlope: 0
        outSlope: 0
        tangentMode: 0
        weightedMode: 0
        inWeight: 0.33333334
        outWeight: 0.33333334
      - serializedVersion: 3
        time: 1
        value: 0
        inSlope: 0
        outSlope: 0
        tangentMode: 0
        weightedMode: 0
        inWeight: 0.33333334
        outWeight: 0.33333334
      - serializedVersion: 3
        time: 1.5
        value: -1
        inSlope: 0
        outSlope: 0
        tangentMode: 0
        weightedMode: 0
        inWeight: 0.33333334
        outWeight: 0.33333334
      - serializedVersion: 3
        time: 2
        value: 0
        inSlope: 0
        outSlope: 0
        tangentMode: 0
        weightedMode: 0
        inWeight: 0.33333334
        outWeight: 0.33333334
      m_PreInfinity: 2
      m_PostInfinity: 2
      m_RotationOrder: 4
    VerticaltoHorizontalRatio: 2
  jumpAndLandingBob:
    BobDuration: 0.15
    BobAmount: 0.2
  rigidbodyFirstPersonController: {fileID: 681242875471188961}
  StrideInterval: 4
  RunningStrideLengthen: 0.722
--- !u!124 &681242875470118509
Behaviour:
  m_ObjectHideFlags: 0
  m_CorrespondingSourceObject: {fileID: 0}
  m_PrefabInstance: {fileID: 0}
  m_PrefabAsset: {fileID: 0}
  m_GameObject: {fileID: 681242875477206529}
  m_Enabled: 1
--- !u!1 &681242875477206531
GameObject:
  m_ObjectHideFlags: 0
  m_CorrespondingSourceObject: {fileID: 0}
  m_PrefabInstance: {fileID: 0}
  m_PrefabAsset: {fileID: 0}
  serializedVersion: 6
  m_Component:
  - component: {fileID: 681242875476982311}
  - component: {fileID: 681242875480393061}
  - component: {fileID: 681242875473405349}
  - component: {fileID: 681242875471188961}
  - component: {fileID: 1255039326346737626}
  - component: {fileID: 4606229352618925703}
  - component: {fileID: 5811715716049380985}
  m_Layer: 0
  m_Name: Player
  m_TagString: Player
  m_Icon: {fileID: 0}
  m_NavMeshLayer: 0
  m_StaticEditorFlags: 0
  m_IsActive: 1
--- !u!4 &681242875476982311
Transform:
  m_ObjectHideFlags: 0
  m_CorrespondingSourceObject: {fileID: 0}
  m_PrefabInstance: {fileID: 0}
  m_PrefabAsset: {fileID: 0}
  m_GameObject: {fileID: 681242875477206531}
  m_LocalRotation: {x: 0, y: 1, z: 0, w: -0.00000016292068}
  m_LocalPosition: {x: 0, y: 0, z: 0}
  m_LocalScale: {x: 1, y: 1, z: 1}
  m_Children:
  - {fileID: 681242875476982309}
  m_Father: {fileID: 0}
  m_RootOrder: 0
  m_LocalEulerAnglesHint: {x: 0, y: 0, z: 0}
--- !u!54 &681242875480393061
Rigidbody:
  m_ObjectHideFlags: 0
  m_CorrespondingSourceObject: {fileID: 0}
  m_PrefabInstance: {fileID: 0}
  m_PrefabAsset: {fileID: 0}
  m_GameObject: {fileID: 681242875477206531}
  serializedVersion: 2
  m_Mass: 10
  m_Drag: 0
  m_AngularDrag: 0.05
  m_UseGravity: 1
  m_IsKinematic: 0
  m_Interpolate: 0
  m_Constraints: 112
  m_CollisionDetection: 0
--- !u!136 &681242875473405349
CapsuleCollider:
  m_ObjectHideFlags: 0
  m_CorrespondingSourceObject: {fileID: 0}
  m_PrefabInstance: {fileID: 0}
  m_PrefabAsset: {fileID: 0}
  m_GameObject: {fileID: 681242875477206531}
  m_Material: {fileID: 13400000, guid: b9c9781499aa881418bfa9c5a17b36d9, type: 2}
  m_IsTrigger: 0
  m_Enabled: 1
  m_Radius: 0.5
  m_Height: 1.6
  m_Direction: 1
  m_Center: {x: 0, y: 0, z: 0}
--- !u!114 &681242875471188961
MonoBehaviour:
  m_ObjectHideFlags: 0
  m_CorrespondingSourceObject: {fileID: 0}
  m_PrefabInstance: {fileID: 0}
  m_PrefabAsset: {fileID: 0}
  m_GameObject: {fileID: 681242875477206531}
  m_Enabled: 1
  m_EditorHideFlags: 0
  m_Script: {fileID: 11500000, guid: 81c9795a96c094f4cbde4d65546aa9b2, type: 3}
  m_Name: 
  m_EditorClassIdentifier: 
  cam: {fileID: 681242875476485157}
  movementSettings:
    ForwardSpeed: 10
    BackwardSpeed: 10
    StrafeSpeed: 10
    RunMultiplier: 0.5
    RunKey: 304
    JumpForce: 55
    SlopeCurveModifier:
      serializedVersion: 2
      m_Curve:
      - serializedVersion: 3
        time: -90
        value: 1
        inSlope: 0
        outSlope: 0
        tangentMode: 0
        weightedMode: 0
        inWeight: 0.33333334
        outWeight: 0.33333334
      - serializedVersion: 3
        time: 0
        value: 1
        inSlope: 0
        outSlope: 0
        tangentMode: 0
        weightedMode: 0
        inWeight: 0.33333334
        outWeight: 0.33333334
      - serializedVersion: 3
        time: 90
        value: 0
        inSlope: 0
        outSlope: 0
        tangentMode: 0
        weightedMode: 0
        inWeight: 0.33333334
        outWeight: 0.33333334
      m_PreInfinity: 2
      m_PostInfinity: 2
      m_RotationOrder: 4
    CurrentTargetSpeed: 8
  mouseLook:
    XSensitivity: 1
    YSensitivity: 1
    clampVerticalRotation: 1
    MinimumX: -45
    MaximumX: 90
    smooth: 0
    smoothTime: 18
    lockCursor: 1
  advancedSettings:
    groundCheckDistance: 0.1
    stickToGroundHelperDistance: 0.6
    slowDownRate: 20
    airControl: 1
    shellOffset: 0
--- !u!114 &1255039326346737626
MonoBehaviour:
  m_ObjectHideFlags: 0
  m_CorrespondingSourceObject: {fileID: 0}
  m_PrefabInstance: {fileID: 0}
  m_PrefabAsset: {fileID: 0}
  m_GameObject: {fileID: 681242875477206531}
  m_Enabled: 1
  m_EditorHideFlags: 0
  m_Script: {fileID: 11500000, guid: 7d2046b9a95c6b741ab548d305ae390c, type: 3}
  m_Name: 
  m_EditorClassIdentifier: 
  playerHealth: 100
--- !u!114 &4606229352618925703
MonoBehaviour:
  m_ObjectHideFlags: 0
  m_CorrespondingSourceObject: {fileID: 0}
  m_PrefabInstance: {fileID: 0}
  m_PrefabAsset: {fileID: 0}
  m_GameObject: {fileID: 681242875477206531}
  m_Enabled: 1
  m_EditorHideFlags: 0
  m_Script: {fileID: 11500000, guid: a43d945251df4d548bb7ba7ceacd5a2d, type: 3}
  m_Name: 
  m_EditorClassIdentifier: 
  gameOverCanvas: {fileID: 0}
--- !u!114 &5811715716049380985
MonoBehaviour:
  m_ObjectHideFlags: 0
  m_CorrespondingSourceObject: {fileID: 0}
  m_PrefabInstance: {fileID: 0}
  m_PrefabAsset: {fileID: 0}
  m_GameObject: {fileID: 681242875477206531}
  m_Enabled: 1
  m_EditorHideFlags: 0
  m_Script: {fileID: 11500000, guid: 796638b302f67a34aa5dbcb80e12bec0, type: 3}
  m_Name: 
  m_EditorClassIdentifier: 
  ammoSlots:
  - ammoType: 0
    ammoAmount: 50
  - ammoType: 1
    ammoAmount: 50
  - ammoType: 2
    ammoAmount: 20
--- !u!1 &2123313412125870847
GameObject:
  m_ObjectHideFlags: 0
  m_CorrespondingSourceObject: {fileID: 0}
  m_PrefabInstance: {fileID: 0}
  m_PrefabAsset: {fileID: 0}
  serializedVersion: 6
  m_Component:
  - component: {fileID: 713354634460229528}
  - component: {fileID: 5674956812912324436}
  m_Layer: 0
  m_Name: Weapons
  m_TagString: Untagged
  m_Icon: {fileID: 0}
  m_NavMeshLayer: 0
  m_StaticEditorFlags: 0
  m_IsActive: 1
--- !u!4 &713354634460229528
Transform:
  m_ObjectHideFlags: 0
  m_CorrespondingSourceObject: {fileID: 0}
  m_PrefabInstance: {fileID: 0}
  m_PrefabAsset: {fileID: 0}
  m_GameObject: {fileID: 2123313412125870847}
  m_LocalRotation: {x: 0, y: 0, z: 0, w: 1}
  m_LocalPosition: {x: 0, y: 0, z: 0}
  m_LocalScale: {x: 1, y: 1, z: 1}
  m_Children:
  - {fileID: 3974204781897176906}
  - {fileID: 7226515534718526122}
  - {fileID: 8703734173019096839}
  m_Father: {fileID: 681242875476982309}
  m_RootOrder: 0
  m_LocalEulerAnglesHint: {x: 0, y: 0, z: 0}
--- !u!114 &5674956812912324436
MonoBehaviour:
  m_ObjectHideFlags: 0
  m_CorrespondingSourceObject: {fileID: 0}
  m_PrefabInstance: {fileID: 0}
  m_PrefabAsset: {fileID: 0}
  m_GameObject: {fileID: 2123313412125870847}
  m_Enabled: 1
  m_EditorHideFlags: 0
  m_Script: {fileID: 11500000, guid: 397f5057575b6e34d8a019a28217afea, type: 3}
  m_Name: 
  m_EditorClassIdentifier: 
  currentWeapon: 0
--- !u!1 &8825682474416029229
GameObject:
  m_ObjectHideFlags: 0
  m_CorrespondingSourceObject: {fileID: 0}
  m_PrefabInstance: {fileID: 0}
  m_PrefabAsset: {fileID: 0}
  serializedVersion: 6
  m_Component:
  - component: {fileID: 37847408951371118}
  - component: {fileID: 3752959039106671781}
  - component: {fileID: 6097527023566156189}
  m_Layer: 8
  m_Name: FlashLight
  m_TagString: Untagged
  m_Icon: {fileID: 0}
  m_NavMeshLayer: 0
  m_StaticEditorFlags: 0
  m_IsActive: 1
--- !u!4 &37847408951371118
Transform:
  m_ObjectHideFlags: 0
  m_CorrespondingSourceObject: {fileID: 0}
  m_PrefabInstance: {fileID: 0}
  m_PrefabAsset: {fileID: 0}
  m_GameObject: {fileID: 8825682474416029229}
  m_LocalRotation: {x: 0, y: 0, z: 0, w: 1}
  m_LocalPosition: {x: 0, y: 0, z: 0.0229}
  m_LocalScale: {x: 1, y: 1, z: 1}
  m_Children: []
  m_Father: {fileID: 681242875476982309}
  m_RootOrder: 1
  m_LocalEulerAnglesHint: {x: 90, y: 0, z: 0}
--- !u!108 &3752959039106671781
Light:
  m_ObjectHideFlags: 0
  m_CorrespondingSourceObject: {fileID: 0}
  m_PrefabInstance: {fileID: 0}
  m_PrefabAsset: {fileID: 0}
  m_GameObject: {fileID: 8825682474416029229}
  m_Enabled: 1
  serializedVersion: 9
  m_Type: 0
  m_Color: {r: 1, g: 1, b: 1, a: 1}
  m_Intensity: 4
  m_Range: 20
  m_SpotAngle: 70
  m_InnerSpotAngle: 5
  m_CookieSize: 10
  m_Shadows:
    m_Type: 0
    m_Resolution: -1
    m_CustomResolution: -1
    m_Strength: 1
    m_Bias: 0.05
    m_NormalBias: 0.4
    m_NearPlane: 0.2
    m_CullingMatrixOverride:
      e00: 1
      e01: 0
      e02: 0
      e03: 0
      e10: 0
      e11: 1
      e12: 0
      e13: 0
      e20: 0
      e21: 0
      e22: 1
      e23: 0
      e30: 0
      e31: 0
      e32: 0
      e33: 1
    m_UseCullingMatrixOverride: 0
  m_Cookie: {fileID: 0}
  m_DrawHalo: 0
  m_Flare: {fileID: 0}
  m_RenderMode: 0
  m_CullingMask:
    serializedVersion: 2
    m_Bits: 4294967295
  m_RenderingLayerMask: 1
  m_Lightmapping: 4
  m_LightShadowCasterMode: 0
  m_AreaSize: {x: 1, y: 1}
  m_BounceIntensity: 1
  m_ColorTemperature: 6570
  m_UseColorTemperature: 0
  m_BoundingSphereOverride: {x: 0, y: 0, z: 0, w: 0}
  m_UseBoundingSphereOverride: 0
  m_ShadowRadius: 0
  m_ShadowAngle: 0
--- !u!114 &6097527023566156189
MonoBehaviour:
  m_ObjectHideFlags: 0
  m_CorrespondingSourceObject: {fileID: 0}
  m_PrefabInstance: {fileID: 0}
  m_PrefabAsset: {fileID: 0}
  m_GameObject: {fileID: 8825682474416029229}
  m_Enabled: 1
  m_EditorHideFlags: 0
  m_Script: {fileID: 11500000, guid: 734f561bbfcaa0545bb52b0eee1bcff5, type: 3}
  m_Name: 
  m_EditorClassIdentifier: 
  lightDecay: 0.1
  angleDecay: 1
  minimumAngle: 40
--- !u!1001 &4910974216951506188
PrefabInstance:
  m_ObjectHideFlags: 0
  serializedVersion: 2
  m_Modification:
    m_TransformParent: {fileID: 713354634460229528}
    m_Modifications:
    - target: {fileID: 2337074158996965286, guid: 18eae046129f47a4fb9cdc038258b711,
        type: 3}
      propertyPath: m_LocalPosition.x
      value: 0.0626
      objectReference: {fileID: 0}
    - target: {fileID: 2337074158996965286, guid: 18eae046129f47a4fb9cdc038258b711,
        type: 3}
      propertyPath: m_LocalPosition.y
      value: -0.0519
      objectReference: {fileID: 0}
    - target: {fileID: 2337074158996965286, guid: 18eae046129f47a4fb9cdc038258b711,
        type: 3}
      propertyPath: m_LocalPosition.z
      value: 0.109
      objectReference: {fileID: 0}
    - target: {fileID: 2337074158996965286, guid: 18eae046129f47a4fb9cdc038258b711,
        type: 3}
      propertyPath: m_LocalRotation.x
      value: -0
      objectReference: {fileID: 0}
    - target: {fileID: 2337074158996965286, guid: 18eae046129f47a4fb9cdc038258b711,
        type: 3}
      propertyPath: m_LocalRotation.y
      value: -0.7071068
      objectReference: {fileID: 0}
    - target: {fileID: 2337074158996965286, guid: 18eae046129f47a4fb9cdc038258b711,
        type: 3}
      propertyPath: m_LocalRotation.z
      value: -0
      objectReference: {fileID: 0}
    - target: {fileID: 2337074158996965286, guid: 18eae046129f47a4fb9cdc038258b711,
        type: 3}
      propertyPath: m_LocalRotation.w
      value: 0.7071068
      objectReference: {fileID: 0}
    - target: {fileID: 2337074158996965286, guid: 18eae046129f47a4fb9cdc038258b711,
        type: 3}
      propertyPath: m_RootOrder
      value: 1
      objectReference: {fileID: 0}
    - target: {fileID: 2337074158996965286, guid: 18eae046129f47a4fb9cdc038258b711,
        type: 3}
      propertyPath: m_LocalEulerAnglesHint.x
      value: 0
      objectReference: {fileID: 0}
    - target: {fileID: 2337074158996965286, guid: 18eae046129f47a4fb9cdc038258b711,
        type: 3}
      propertyPath: m_LocalEulerAnglesHint.y
      value: -90
      objectReference: {fileID: 0}
    - target: {fileID: 2337074158996965286, guid: 18eae046129f47a4fb9cdc038258b711,
        type: 3}
      propertyPath: m_LocalEulerAnglesHint.z
      value: 0
      objectReference: {fileID: 0}
    - target: {fileID: 2337074158996965286, guid: 18eae046129f47a4fb9cdc038258b711,
        type: 3}
      propertyPath: m_LocalScale.x
      value: 0.25
      objectReference: {fileID: 0}
    - target: {fileID: 2337074158996965286, guid: 18eae046129f47a4fb9cdc038258b711,
        type: 3}
      propertyPath: m_LocalScale.y
      value: 0.25
      objectReference: {fileID: 0}
    - target: {fileID: 2337074158996965286, guid: 18eae046129f47a4fb9cdc038258b711,
        type: 3}
      propertyPath: m_LocalScale.z
      value: 0.25
      objectReference: {fileID: 0}
    - target: {fileID: 2337074158997199750, guid: 18eae046129f47a4fb9cdc038258b711,
        type: 3}
      propertyPath: m_Name
      value: SMG
      objectReference: {fileID: 0}
    - target: {fileID: 2337074158997199750, guid: 18eae046129f47a4fb9cdc038258b711,
        type: 3}
      propertyPath: m_IsActive
      value: 1
      objectReference: {fileID: 0}
    - target: {fileID: 8409442194952507487, guid: 18eae046129f47a4fb9cdc038258b711,
        type: 3}
      propertyPath: ammoSlot
      value: 
      objectReference: {fileID: 5811715716049380985}
    - target: {fileID: 8409442194952507487, guid: 18eae046129f47a4fb9cdc038258b711,
        type: 3}
      propertyPath: FPCamera
      value: 
      objectReference: {fileID: 681242875476485157}
    - target: {fileID: 8409442194952507487, guid: 18eae046129f47a4fb9cdc038258b711,
        type: 3}
      propertyPath: shotDelay
      value: 0.1
      objectReference: {fileID: 0}
    - target: {fileID: 8409442194952507487, guid: 18eae046129f47a4fb9cdc038258b711,
        type: 3}
      propertyPath: range
      value: 50
      objectReference: {fileID: 0}
    m_RemovedComponents: []
  m_SourcePrefab: {fileID: 100100000, guid: 18eae046129f47a4fb9cdc038258b711, type: 3}
--- !u!4 &7226515534718526122 stripped
Transform:
  m_CorrespondingSourceObject: {fileID: 2337074158996965286, guid: 18eae046129f47a4fb9cdc038258b711,
    type: 3}
  m_PrefabInstance: {fileID: 4910974216951506188}
  m_PrefabAsset: {fileID: 0}
--- !u!1001 &6388097192388264097
PrefabInstance:
  m_ObjectHideFlags: 0
  serializedVersion: 2
  m_Modification:
    m_TransformParent: {fileID: 713354634460229528}
    m_Modifications:
    - target: {fileID: 1524047556586526799, guid: ada2587319194f542957a8c2ae277cb9,
        type: 3}
      propertyPath: FPCamera
      value: 
      objectReference: {fileID: 681242875476485157}
    - target: {fileID: 1524047556586526799, guid: ada2587319194f542957a8c2ae277cb9,
        type: 3}
      propertyPath: ammoSlot
      value: 
      objectReference: {fileID: 5811715716049380985}
    - target: {fileID: 1524047556586526799, guid: ada2587319194f542957a8c2ae277cb9,
        type: 3}
      propertyPath: shotDelay
      value: 0.2
      objectReference: {fileID: 0}
    - target: {fileID: 2337074158996965286, guid: ada2587319194f542957a8c2ae277cb9,
        type: 3}
      propertyPath: m_LocalPosition.x
      value: 0.065
      objectReference: {fileID: 0}
    - target: {fileID: 2337074158996965286, guid: ada2587319194f542957a8c2ae277cb9,
        type: 3}
      propertyPath: m_LocalPosition.y
      value: -0.050000012
      objectReference: {fileID: 0}
    - target: {fileID: 2337074158996965286, guid: ada2587319194f542957a8c2ae277cb9,
        type: 3}
      propertyPath: m_LocalPosition.z
      value: 0.109
      objectReference: {fileID: 0}
    - target: {fileID: 2337074158996965286, guid: ada2587319194f542957a8c2ae277cb9,
        type: 3}
      propertyPath: m_LocalRotation.x
      value: -0
      objectReference: {fileID: 0}
    - target: {fileID: 2337074158996965286, guid: ada2587319194f542957a8c2ae277cb9,
        type: 3}
      propertyPath: m_LocalRotation.y
      value: -0.7071068
      objectReference: {fileID: 0}
    - target: {fileID: 2337074158996965286, guid: ada2587319194f542957a8c2ae277cb9,
        type: 3}
      propertyPath: m_LocalRotation.z
      value: -0
      objectReference: {fileID: 0}
    - target: {fileID: 2337074158996965286, guid: ada2587319194f542957a8c2ae277cb9,
        type: 3}
      propertyPath: m_LocalRotation.w
      value: 0.7071068
      objectReference: {fileID: 0}
    - target: {fileID: 2337074158996965286, guid: ada2587319194f542957a8c2ae277cb9,
        type: 3}
      propertyPath: m_RootOrder
      value: 2
      objectReference: {fileID: 0}
    - target: {fileID: 2337074158996965286, guid: ada2587319194f542957a8c2ae277cb9,
        type: 3}
      propertyPath: m_LocalEulerAnglesHint.x
      value: 0
      objectReference: {fileID: 0}
    - target: {fileID: 2337074158996965286, guid: ada2587319194f542957a8c2ae277cb9,
        type: 3}
      propertyPath: m_LocalEulerAnglesHint.y
      value: -90
      objectReference: {fileID: 0}
    - target: {fileID: 2337074158996965286, guid: ada2587319194f542957a8c2ae277cb9,
        type: 3}
      propertyPath: m_LocalEulerAnglesHint.z
      value: 0
      objectReference: {fileID: 0}
    - target: {fileID: 2337074158996965286, guid: ada2587319194f542957a8c2ae277cb9,
        type: 3}
      propertyPath: m_LocalScale.y
      value: 0.3
      objectReference: {fileID: 0}
    - target: {fileID: 2337074158996965286, guid: ada2587319194f542957a8c2ae277cb9,
        type: 3}
      propertyPath: m_LocalScale.z
      value: 0.3
      objectReference: {fileID: 0}
    - target: {fileID: 2337074158996965286, guid: ada2587319194f542957a8c2ae277cb9,
        type: 3}
      propertyPath: m_LocalScale.x
      value: 0.35
      objectReference: {fileID: 0}
    - target: {fileID: 2337074158997199750, guid: ada2587319194f542957a8c2ae277cb9,
        type: 3}
      propertyPath: m_Name
      value: Carbine
      objectReference: {fileID: 0}
    m_RemovedComponents: []
  m_SourcePrefab: {fileID: 100100000, guid: ada2587319194f542957a8c2ae277cb9, type: 3}
--- !u!4 &8703734173019096839 stripped
Transform:
  m_CorrespondingSourceObject: {fileID: 2337074158996965286, guid: ada2587319194f542957a8c2ae277cb9,
    type: 3}
  m_PrefabInstance: {fileID: 6388097192388264097}
  m_PrefabAsset: {fileID: 0}
--- !u!1001 &7064719165219670435
PrefabInstance:
  m_ObjectHideFlags: 0
  serializedVersion: 2
  m_Modification:
    m_TransformParent: {fileID: 713354634460229528}
    m_Modifications:
    - target: {fileID: 1605193116953311157, guid: 5150cdc160e8036418a0bcaf9b595195,
        type: 3}
      propertyPath: FPCamera
      value: 
      objectReference: {fileID: 681242875476485157}
    - target: {fileID: 1605193116953311157, guid: 5150cdc160e8036418a0bcaf9b595195,
        type: 3}
      propertyPath: ammoSlot
      value: 
      objectReference: {fileID: 5811715716049380985}
    - target: {fileID: 1605193116953311157, guid: 5150cdc160e8036418a0bcaf9b595195,
        type: 3}
      propertyPath: shotDelay
      value: 0.1
      objectReference: {fileID: 0}
    - target: {fileID: 1605193116953311157, guid: 5150cdc160e8036418a0bcaf9b595195,
        type: 3}
      propertyPath: range
      value: 25
      objectReference: {fileID: 0}
    - target: {fileID: 6137802209677795049, guid: 5150cdc160e8036418a0bcaf9b595195,
        type: 3}
      propertyPath: m_LocalPosition.x
      value: 0.0655
      objectReference: {fileID: 0}
    - target: {fileID: 6137802209677795049, guid: 5150cdc160e8036418a0bcaf9b595195,
        type: 3}
      propertyPath: m_LocalPosition.y
      value: -0.064
      objectReference: {fileID: 0}
    - target: {fileID: 6137802209677795049, guid: 5150cdc160e8036418a0bcaf9b595195,
        type: 3}
      propertyPath: m_LocalPosition.z
      value: 0.092
      objectReference: {fileID: 0}
    - target: {fileID: 6137802209677795049, guid: 5150cdc160e8036418a0bcaf9b595195,
        type: 3}
      propertyPath: m_LocalRotation.x
      value: -0
      objectReference: {fileID: 0}
    - target: {fileID: 6137802209677795049, guid: 5150cdc160e8036418a0bcaf9b595195,
        type: 3}
      propertyPath: m_LocalRotation.y
      value: -0
      objectReference: {fileID: 0}
    - target: {fileID: 6137802209677795049, guid: 5150cdc160e8036418a0bcaf9b595195,
        type: 3}
      propertyPath: m_LocalRotation.z
      value: -0
      objectReference: {fileID: 0}
    - target: {fileID: 6137802209677795049, guid: 5150cdc160e8036418a0bcaf9b595195,
        type: 3}
      propertyPath: m_LocalRotation.w
      value: 1
      objectReference: {fileID: 0}
    - target: {fileID: 6137802209677795049, guid: 5150cdc160e8036418a0bcaf9b595195,
        type: 3}
      propertyPath: m_RootOrder
      value: 0
      objectReference: {fileID: 0}
    - target: {fileID: 6137802209677795049, guid: 5150cdc160e8036418a0bcaf9b595195,
        type: 3}
      propertyPath: m_LocalEulerAnglesHint.x
      value: 0
      objectReference: {fileID: 0}
    - target: {fileID: 6137802209677795049, guid: 5150cdc160e8036418a0bcaf9b595195,
        type: 3}
      propertyPath: m_LocalEulerAnglesHint.y
      value: 0
      objectReference: {fileID: 0}
    - target: {fileID: 6137802209677795049, guid: 5150cdc160e8036418a0bcaf9b595195,
        type: 3}
      propertyPath: m_LocalEulerAnglesHint.z
      value: 0
      objectReference: {fileID: 0}
    - target: {fileID: 6137802209677795049, guid: 5150cdc160e8036418a0bcaf9b595195,
        type: 3}
      propertyPath: m_LocalScale.x
      value: 0.5
      objectReference: {fileID: 0}
    - target: {fileID: 6137802209677795049, guid: 5150cdc160e8036418a0bcaf9b595195,
        type: 3}
      propertyPath: m_LocalScale.y
      value: 0.5
      objectReference: {fileID: 0}
    - target: {fileID: 6137802209677795049, guid: 5150cdc160e8036418a0bcaf9b595195,
        type: 3}
      propertyPath: m_LocalScale.z
      value: 0.5
      objectReference: {fileID: 0}
    - target: {fileID: 7167060236474592506, guid: 5150cdc160e8036418a0bcaf9b595195,
        type: 3}
      propertyPath: m_Name
      value: Sidearm
      objectReference: {fileID: 0}
    m_RemovedComponents: []
  m_SourcePrefab: {fileID: 100100000, guid: 5150cdc160e8036418a0bcaf9b595195, type: 3}
--- !u!4 &3974204781897176906 stripped
Transform:
  m_CorrespondingSourceObject: {fileID: 6137802209677795049, guid: 5150cdc160e8036418a0bcaf9b595195,
    type: 3}
  m_PrefabInstance: {fileID: 7064719165219670435}
  m_PrefabAsset: {fileID: 0}
